EDAVFinalProject
…
colnames(resettlement)[colnames(resettlement) == 
                         "Country...territory.of.asylum.residence"] <- "Country_of_asylum"

resettlement <- resettlement %>% filter(Value != "*")
resettlement$Value <- as.numeric(resettlement$Value)

resettlement_bycountry <- resettlement %>%
  group_by(Country_of_asylum, Year) %>%
  summarise(Value = sum(Value)) %>%
  filter(Year == 2016) %>%
  arrange(desc(Value))

resettlement_bycountry

## # A tibble: 30 x 3
## # Groups:   Country_of_asylum [30]
##    Country_of_asylum         Year Value
##    <fct>                    <int> <dbl>
##  1 Australia                 2016 84720
##  2 United States of America  2016 51996
##  3 Canada                    2016 39924
##  4 New Zealand               2016 25488
##  5 Sweden                    2016 18694
##  6 France                    2016  9626
##  7 Norway                    2016  9463
##  8 Denmark                   2016  8961
##  9 Netherlands               2016  6171
## 10 Finland                   2016  4893
## # ... with 20 more rows
…
resettlement_byorigin <- resettlement %>%
  group_by(Origin, Year) %>%
  summarise(Value = sum(Value))

resettlement_byorigin_subset <- resettlement_byorigin %>%
  group_by(Origin) %>%
  filter(Year == 2016) %>%
  summarise(Value = sum(Value)) %>%
  arrange(desc(Value))

resettlement_byorigin_subset

## # A tibble: 149 x 2
##    Origin                 Value
##    <fct>                  <dbl>
##  1 Syrian Arab Rep.       18120
##  2 Eritrea                 7715
##  3 Iraq                    6783
##  4 Dem. Rep. of the Congo  6632
##  5 South Sudan             5887
##  6 Somalia                 5672
##  7 Burundi                 5670
##  8 Ethiopia                5635
##  9 Sudan                   5624
## 10 Central African Rep.    5215
## # ... with 139 more rows
…
